Final Project
…
Looking at this plot, the close ratio seems to have a slight positive increasing linear trend over time.

Trying to copy project 4 final_df doesnt work.

outcome_df <- crypto_tab %>%
    #(yq = quarter(Date, with_year=TRUE)) %>%
    #spread(yq, coin_type) %>%
    mutate(Direction = ifelse(spread>0, "up", "down"))
outcome_df

## # A tibble: 3,963 x 11
##    Date         Open   High    Low  Close Volume `Market Cap` coin_type
##    <date>      <dbl>  <dbl>  <dbl>  <dbl>  <dbl> <chr>        <chr>    
##  1 2018-02-20 11232. 11958. 11232. 11404. 9.93e9 1.89536e+11  bitcoin  
##  2 2018-02-20   223.   254.   223.   233. 1.74e9 12335100000  litecoin 
##  3 2018-02-20   944.   965.   893.   895. 2.55e9 92,206,500, ethereum 
##  4 2018-02-19 10553. 11274. 10513. 11225. 7.65e9 1.78055e+11  bitcoin  
##  5 2018-02-19   215.   227.   215.   223. 7.68e8 11907900000  litecoin 
##  6 2018-02-19   922.   958.   922.   944. 2.17e9 90,047,700, ethereum 
##  7 2018-02-18 11123. 11350. 10326  10552. 8.74e9 1.87663e+11  bitcoin  
##  8 2018-02-18   231.   233.   214.   216. 1.01e9 12738800000  litecoin 
##  9 2018-02-18   973.   983.   915.   924. 2.57e9 95,077,100, ethereum 
## 10 2018-02-17 10208. 11140. 10149. 11113. 8.66e9 1.72191e+11  bitcoin  
## #  with 3,953 more rows, and 3 more variables: close_ratio <dbl>,
## #   spread <dbl>, Direction <chr>

predictor_df <- outcome_df %>%
  filter(year(Date) < 2018)
predictor_df

## # A tibble: 3,810 x 11
##    Date         Open   High    Low  Close  Volume `Market Cap` coin_type
##    <date>      <dbl>  <dbl>  <dbl>  <dbl>   <dbl> <chr>        <chr>    
##  1 2017-12-31 12898. 14377. 12756. 14156. 1.21e10 2.16326e+11  bitcoin  
##  2 2017-12-31   217.   238.   214.   232. 7.71e 8 11835100000  litecoin 
##  3 2017-12-31   712.   760.   710.   757. 2.55e 9 68,850,800, ethereum 
##  4 2017-12-30 14682. 14682. 12350. 12952. 1.45e10 2.46224e+11  bitcoin  
##  5 2017-12-30   245.   245.   208.   219. 9.44e 8 13364800000  litecoin 
##  6 2017-12-30   754.   754.   685.   717. 3.19e 9 72,856,900, ethereum 
##  7 2017-12-29 14696. 15279  14307  14656. 1.30e10 2.46428e+11  bitcoin  
##  8 2017-12-29   250.   258.   238.   246. 1.39e 9 13648200000  litecoin 
##  9 2017-12-29   740.   770.   730.   754. 2.65e 9 71,544,300, ethereum 
## 10 2017-12-28 15864. 15888. 13937. 14606. 1.23e10 2.65988e+11  bitcoin  
## #  with 3,800 more rows, and 3 more variables: close_ratio <dbl>,
## #   spread <dbl>, Direction <chr>

standardized_df <- predictor_df %>%
  group_by(coin_type) %>%
  mutate(mean = mean(spread)) %>%
  mutate(sd = sd(spread)) %>%
  mutate(z = (spread - mean) / sd) %>%
  ungroup()
standardized_df

## # A tibble: 3,810 x 14
##    Date         Open   High    Low  Close  Volume `Market Cap` coin_type
##    <date>      <dbl>  <dbl>  <dbl>  <dbl>   <dbl> <chr>        <chr>    
##  1 2017-12-31 12898. 14377. 12756. 14156. 1.21e10 2.16326e+11  bitcoin  
##  2 2017-12-31   217.   238.   214.   232. 7.71e 8 11835100000  litecoin 
##  3 2017-12-31   712.   760.   710.   757. 2.55e 9 68,850,800, ethereum 
##  4 2017-12-30 14682. 14682. 12350. 12952. 1.45e10 2.46224e+11  bitcoin  
##  5 2017-12-30   245.   245.   208.   219. 9.44e 8 13364800000  litecoin 
##  6 2017-12-30   754.   754.   685.   717. 3.19e 9 72,856,900, ethereum 
##  7 2017-12-29 14696. 15279  14307  14656. 1.30e10 2.46428e+11  bitcoin  
##  8 2017-12-29   250.   258.   238.   246. 1.39e 9 13648200000  litecoin 
##  9 2017-12-29   740.   770.   730.   754. 2.65e 9 71,544,300, ethereum 
## 10 2017-12-28 15864. 15888. 13937. 14606. 1.23e10 2.65988e+11  bitcoin  
## #  with 3,800 more rows, and 6 more variables: close_ratio <dbl>,
## #   spread <dbl>, Direction <chr>, mean <dbl>, sd <dbl>, z <dbl>
…
diff_df <- (matrix_1 - matrix_2) %>%
  magrittr::set_colnames(NULL) %>%
  as_data_frame() %>%
  mutate(coin_type = wide_df$coin_type)

## Warning: `as_data_frame()` is deprecated, use `as_tibble()` (but mind the new semantics).
## This warning is displayed once per session.

final_df <- diff_df %>%
  inner_join(outcome_df %>% select(coin_type, Direction), by="coin_type") %>%
  mutate(Direction=factor(Direction, levels=c("down", "up"))) %>%
  select(-coin_type)
final_df

## # A tibble: 3,963 x 1,466
##        V1    V2      V3     V4    V5     V6      V7    V8    V9    V10    V11
##     <dbl> <dbl>   <dbl>  <dbl> <dbl>  <dbl>   <dbl> <dbl> <dbl>  <dbl>  <dbl>
##  1 0.0895 0.135 -0.0110 -0.104 0.113 0.0620 -0.0648 0.101 0.192 -0.286 -0.801
##  2 0.0895 0.135 -0.0110 -0.104 0.113 0.0620 -0.0648 0.101 0.192 -0.286 -0.801
##  3 0.0895 0.135 -0.0110 -0.104 0.113 0.0620 -0.0648 0.101 0.192 -0.286 -0.801
##  4 0.0895 0.135 -0.0110 -0.104 0.113 0.0620 -0.0648 0.101 0.192 -0.286 -0.801
##  5 0.0895 0.135 -0.0110 -0.104 0.113 0.0620 -0.0648 0.101 0.192 -0.286 -0.801
##  6 0.0895 0.135 -0.0110 -0.104 0.113 0.0620 -0.0648 0.101 0.192 -0.286 -0.801
##  7 0.0895 0.135 -0.0110 -0.104 0.113 0.0620 -0.0648 0.101 0.192 -0.286 -0.801
##  8 0.0895 0.135 -0.0110 -0.104 0.113 0.0620 -0.0648 0.101 0.192 -0.286 -0.801
##  9 0.0895 0.135 -0.0110 -0.104 0.113 0.0620 -0.0648 0.101 0.192 -0.286 -0.801
## 10 0.0895 0.135 -0.0110 -0.104 0.113 0.0620 -0.0648 0.101 0.192 -0.286 -0.801
## #  with 3,953 more rows, and 1,455 more variables: V12 <dbl>, V13 <dbl>,
## #   V14 <dbl>, V15 <dbl>, V16 <dbl>, V17 <dbl>, V18 <dbl>, V19 <dbl>,
## #   V20 <dbl>, V21 <dbl>, V22 <dbl>, V23 <dbl>, V24 <dbl>, V25 <dbl>,
## #   V26 <dbl>, V27 <dbl>, V28 <dbl>, V29 <dbl>, V30 <dbl>, V31 <dbl>,
## #   V32 <dbl>, V33 <dbl>, V34 <dbl>, V35 <dbl>, V36 <dbl>, V37 <dbl>,
## #   V38 <dbl>, V39 <dbl>, V40 <dbl>, V41 <dbl>, V42 <dbl>, V43 <dbl>,
## #   V44 <dbl>, V45 <dbl>, V46 <dbl>, V47 <dbl>, V48 <dbl>, V49 <dbl>,
## #   V50 <dbl>, V51 <dbl>, V52 <dbl>, V53 <dbl>, V54 <dbl>, V55 <dbl>,
## #   V56 <dbl>, V57 <dbl>, V58 <dbl>, V59 <dbl>, V60 <dbl>, V61 <dbl>,
…
